<?xml version="1.0" standalone="no"?>
<!DOCTYPE svg PUBLIC "-//W3C//DTD SVG 1.1//EN" "http://www.w3.org/Graphics/SVG/1.1/DTD/svg11.dtd">
<svg xmlns="http://www.w3.org/2000/svg">
<metadata>Generated by Fontastic.me</metadata>
<defs>
<font id="untitled-font-3" horiz-adv-x="512">
<font-face font-family="untitled-font-3" units-per-em="512" ascent="480" descent="-32"/>
<missing-glyph horiz-adv-x="512" />

<glyph unicode="&#97;" d="M394 222l-52 19-22 25c9 13 17 27 23 44 32 32 25 56 18 68 18 86-36 134-107 134-122 0-106-128-105-138-6-13-9-36 22-66 6-15 13-29 21-41 0 0 0 0 0 0l-22-26-52-19c-8-2-100-34-100-197 0-6 5-10 11-10 0 0 46 0 67-1l0-4c0-5 5-10 10-10l300 0c5 0 10 5 10 10l0 4c21 1 67 1 67 1 6 0 11 4 11 10 0 163-92 195-100 197z m-216 151c56 3 93 29 112 48 10-17 30-28 46-35-2-66-32-135-79-135-44 0-73 60-79 122z m100-348l-9 139-25 0-9-138-76 189 21 8c2 1 3 2 4 3l22 25c14-13 31-20 51-20 19 0 35 7 49 20l22-25c1-1 2-2 4-3l20-7z m-40 186c0 0-7-20-7-20l12-17 27 0 12 17c0 1-8 20-8 20-1 0-35 0-36 0z"/>
<glyph unicode="&#98;" d="M436 275l26 207-98 30-218 0-99-34 26-207-58-56 0-214 233 0 0 27-219 0 0 46 219 0 0 30-214 0 0 46 117 0-62 334 41 13 65-347 53 0 0 193 0 0-86 160 186 0-86-160 0 0 0-193 53 0 64 347 41-13-61-334 117 0 0-46-214 0 0-30 219 0 0-46-219 0 0-27 233 0 0 214-59 60"/>
<glyph unicode="&#99;" d="M239 177c0 0 2 0 6-1 4 0 10 0 15-1 3 0 7-1 11-2 3 0 7 0 11 0 3 0 8-1 11-1 5 0 8 0 13 0 2 0 4 0 6 0 2 0 4 0 5 1 3 0 4 0 6 0 2 0 4 1 6 1 4 1 7 2 11 2 4 0 7 1 10 2 3 0 6 1 9 2 3 1 5 1 7 2 3 1 6 2 6 2 0 0-2-2-5-5-1-1-3-3-6-4-2-2-5-4-7-5-3-2-7-4-9-5-4-2-8-3-12-5-5-1-9-2-13-3-5 0-9 0-14-1-5 0-10 0-14 1-2 0-5 0-7 0-2 1-4 1-6 2-5 0-8 2-12 3-4 2-7 3-10 4-6 3-11 6-15 8-1 2-3 3-3 3m199 95l0-270-12 7c-1 1-27 14-40 47-18-1-36-2-52-2-147 0-201 36-218 48-2 0-3 1-4 2-3 1-6 2-9 2-14 2-23 8-22 32-17 45 13 161 48 232 0-9 1-18 6-25-29-69-53-167-38-203l0-2 0-1c0-15 2-15 8-17 5-1 10-1 15-4 1-1 3-2 4-3 17-11 68-45 210-45 18 0 38 1 57 2l6 0 2-6c5-16 16-28 23-35l0 218c-7-5-15-13-25-29l-4-6-7 4c-17 11-41 17-69 17-1 0-2 0-3 0-53-1-105-34-112-43l-36-36 23 46c8 16 12 39 13 61 4-3 9-4 16-4-1-13-2-26-5-39 23 14 61 30 100 31 35 1 59-7 75-15 21 30 38 34 40 35z m-181-17c70 0 127 57 127 126 0 70-57 127-127 127-69 0-126-57-126-127 0-70 57-126 126-126z m0 234c60 0 108-48 108-107 0-59-48-108-108-108-59 0-107 49-107 108 0 58 48 107 107 107z m-512-374c-9 0-17 8-17 17 0 10 8 17 17 17 10 0 17-7 17-17 0-10-7-17-17-17z m0 32c-8 0-15-7-15-15 0-8 7-15 15-15 8 0 15 7 15 15 0 8-7 15-15 15z m512 166c-37 0-68 31-68 68 0 37 31 68 68 68 38 0 68-31 68-68 0-37-30-68-68-68z m0 117c-27 0-49-22-49-49 0-27 22-49 49-49 28 0 49 22 49 49 0 27-21 49-49 49z"/>
<glyph unicode="&#100;" d="M152 475c-52-42-121-260-95-324-1-38 16-24 31-33 15-8 82-69 324-55 13-39 45-56 45-56l0 288c0 0-20-5-46-44-20 12-50 22-91 21-65-1-128-41-138-52 36 65 1 199 1 199l25-12c0 0 45-22 64-12 20 9 34 42 34 61 0 19-1 34-24 43-24 9-95 3-130-24m102-257c0 0 2 0 5-1 2 0 6 0 11-1 2 0 5 0 7-1 3 0 6 0 8 0 3-1 6-1 9-1 3 0 6 0 9 0 1 0 3 0 4 0 2 0 3 0 5 1 1 0 2 0 4 0 1 0 3 0 4 0 3 1 5 1 8 2 2 0 5 1 7 1 2 1 4 1 6 2 2 0 4 1 5 1 3 1 4 1 4 1 0 0-1-1-3-3-1-1-2-2-4-3-2-1-3-3-5-4-3-1-5-2-7-3-3-1-6-3-9-3-3-1-6-2-9-3-3 0-7 0-10 0-3 0-7 0-10 0-1 0-3 0-5 1-1 0-3 0-4 1-3 0-6 1-9 2-2 1-5 2-7 3-4 2-8 4-10 5-2 2-4 3-4 3"/>
<glyph unicode="&#101;" d="M510 101c0-44-36-80-80-80-44 0-80 36-80 80 0 44 36 79 80 79 44 0 80-35 80-79m-348 0c0-44-36-80-80-80-45 0-81 36-81 80 0 44 36 79 81 79 44 0 80-35 80-79m-59 0c0 0 4 3 12 7 4 1 9 4 15 6 5 2 12 4 19 6 7 2 14 4 22 6 8 2 16 3 25 4 17 2 35 3 53 3 19 0 37-2 54-4 9-1 17-3 25-5 8-1 15-3 22-5 14-4 25-8 33-12 5-2 8-3 10-4 2-2 3-2 3-2 0 0-1-1-3-2-2-1-5-3-10-5-8-3-19-7-33-11-7-2-14-4-22-6-8-2-16-3-25-4-17-3-35-4-54-5-18 0-36 1-53 3-9 1-17 3-25 5-8 1-15 3-22 5-7 2-14 5-19 7-6 2-11 4-15 6-8 4-12 7-12 7m299 351c0-21-17-39-39-39-22 0-40 18-40 39 0 22 18 40 40 40 22 0 39-18 39-40m-225 0c0-21-18-39-39-39-22 0-40 18-40 39 0 22 18 40 40 40 21 0 39-18 39-40m-39 0c0 0 3 3 10 6 3 1 7 3 11 5 5 1 10 3 15 5 6 2 12 3 18 4 7 2 13 3 20 4 14 2 29 3 44 2 14 0 29-1 43-3 7-1 14-2 20-4 6-1 12-3 18-4 11-3 20-7 27-10 3-1 5-3 7-3 2-1 3-2 3-2 0 0-1 0-3-1-2-1-4-2-7-4-7-3-16-6-27-9-6-2-12-4-18-5-6-1-13-2-20-4-14-2-29-3-43-3-15 0-30 1-44 3-7 0-13 2-20 3-6 1-12 3-18 5-5 1-10 3-15 5-4 2-8 3-11 5-7 3-10 5-10 5m39-153c0-32-26-58-59-58-32 0-59 26-59 58 0 33 27 59 59 59 33 0 59-26 59-59m275 0c0-32-26-58-59-58-32 0-59 26-59 58 0 33 27 59 59 59 33 0 59-26 59-59m-334 0c0 0 4 3 12 7 4 1 8 3 14 5 5 2 11 5 17 6 7 2 14 4 21 6 7 1 15 3 23 4 16 2 34 3 51 3 17-1 34-2 50-4 8-2 16-3 23-4 8-2 15-4 21-6 13-3 24-8 31-11 4-1 7-3 9-4 2-1 3-2 3-2 0 0-1 0-3-1-2-1-5-3-9-5-7-3-18-7-31-11-6-2-13-3-21-5-7-2-15-3-23-4-16-3-33-4-50-4-17 0-35 1-51 3-8 1-16 2-23 4-7 1-14 3-21 5-6 2-12 4-17 6-6 2-10 4-14 6-8 4-12 6-12 6"/>
</font></defs></svg>
